…
``` r
data_files
```

    ## # A tibble: 160 x 4
    ##    arm     subject_id week  observation
    ##    <chr>   <chr>      <chr>       <dbl>
    ##  1 control 01         1            0.2 
    ##  2 control 01         2           -1.31
    ##  3 control 01         3            0.66
    ##  4 control 01         4            1.96
    ##  5 control 01         5            0.23
    ##  6 control 01         6            1.09
    ##  7 control 01         7            0.05
    ##  8 control 01         8            1.94
    ##  9 control 02         1            1.13
    ## 10 control 02         2           -0.88
    ## # … with 150 more rows
…
